Iteration	CPUTime	PhysTime	Travels	Value	AvValue	MinValue	MaxValue	Delta	Criteria	Progress	dGMaxMin	CriteriaType	CriteriaVarType	CriteriaPercentage
1	1	0	0.025	1.75514326e-05	1.75514326e-05	1.75514326e-05	1.75514326e-05	0	0	0	0	0	0	0	3
2	1	0	0.05	9.06302607e-08	8.82103142e-06	9.06302607e-08	1.75514326e-05	8.73040116e-06	0	0	0	0	0	0	3
3	1	0	0.075	-9.46362119e-08	5.84914221e-06	-9.46362119e-08	1.75514326e-05	1.17022904e-05	0	0	0	0	0	0	3
4	1	0	0.1	-1.57588339e-07	4.34745957e-06	-1.57588339e-07	1.75514326e-05	1.3203973e-05	0	0	0	0	0	0	3
5	1	0	0.125	-8.31857098e-08	3.46133052e-06	-1.57588339e-07	1.75514326e-05	1.40901021e-05	0	0	0	0	0	0	3
6	1	0	0.15	7.4079334e-08	2.89678865e-06	-1.57588339e-07	1.75514326e-05	1.46546439e-05	0	0	0	0	0	0	3
7	1	0	0.175	2.15407491e-07	2.5137342e-06	-1.57588339e-07	1.75514326e-05	1.50376984e-05	0	0	0	0	0	0	3
8	1	0	0.2	1.81356848e-07	2.22218703e-06	-1.57588339e-07	1.75514326e-05	1.53292455e-05	0	0	0	0	0	0	3
9	2	0	0.225	1.8897847e-07	1.99627497e-06	-1.57588339e-07	1.75514326e-05	1.55551576e-05	0	0	0	0	0	0	3
10	2	0	0.25	1.97395492e-07	1.81638702e-06	-1.57588339e-07	1.75514326e-05	1.57350456e-05	0	0	0	0	0	0	3
11	2	0	0.275	2.02964957e-07	1.66971229e-06	-1.57588339e-07	1.75514326e-05	1.58817203e-05	0	0	0	0	0	0	3
12	2	0	0.3	2.03082727e-07	1.54749316e-06	-1.57588339e-07	1.75514326e-05	1.60039394e-05	0	0	0	0	0	0	3
13	2	0	0.325	1.70964836e-07	1.44160636e-06	-1.57588339e-07	1.75514326e-05	1.61098262e-05	0	0	0	0	0	0	3
14	2	0	0.35	2.45310778e-07	1.35615668e-06	-1.57588339e-07	1.75514326e-05	1.61952759e-05	0	0	0	0	0	0	3
15	2	0	0.375	2.63447147e-07	1.28330938e-06	-1.57588339e-07	1.75514326e-05	1.62681232e-05	0	0	0	0	0	0	3
16	2	0	0.4	1.085787e-07	1.20988871e-06	-1.57588339e-07	1.75514326e-05	1.63415439e-05	0	0	0	0	0	0	3
17	2	0	0.425	2.14517793e-07	1.15133748e-06	-1.57588339e-07	1.75514326e-05	1.64000951e-05	0	0	0	0	0	0	3
18	2	0	0.45	3.15412602e-09	1.08754952e-06	-1.57588339e-07	1.75514326e-05	1.64638831e-05	0	0	0	0	0	0	3
19	2	0	0.475	-3.09184152e-07	1.01403722e-06	-3.09184152e-07	1.75514326e-05	1.65373954e-05	0	0	0	0	0	0	3
20	2	0	0.5	7.70150893e-09	9.63720432e-07	-3.09184152e-07	1.75514326e-05	1.65877121e-05	0	0	0	0	0	0	3
21	2	0	0.525	1.05532495e-07	9.14254276e-08	-3.09184152e-07	2.63447147e-07	5.72631299e-07	0	0	0	0	0	0	3
22	2	0	0.55	-2.23503543e-07	7.57187374e-08	-3.09184152e-07	2.63447147e-07	5.72631299e-07	0	0	0	0	0	0	3
23	2	0	0.575	-1.16860362e-06	2.20203671e-08	-1.16860362e-06	2.63447147e-07	1.43205077e-06	0	0	0	0	0	0	3
24	3	0	0.6	-1.09771456e-06	-2.49859438e-08	-1.16860362e-06	2.63447147e-07	1.43205077e-06	0	0	0	0	0	0	3
25	3	0	0.625	-6.24296246e-07	-5.20414706e-08	-1.16860362e-06	2.63447147e-07	1.43205077e-06	0	0	0	0	0	0	3
26	3	0	0.65	-7.14071577e-07	-9.14490161e-08	-1.16860362e-06	2.63447147e-07	1.43205077e-06	0	0	0	0	0	0	3
27	3	0	0.675	-3.69782152e-07	-1.20708498e-07	-1.16860362e-06	2.63447147e-07	1.43205077e-06	0	0	0	0	0	0	3
28	3	0	0.7	-4.02468159e-07	-1.49899749e-07	-1.16860362e-06	2.63447147e-07	1.43205077e-06	0	0	0	0	0	0	3
29	3	0	0.725	-5.30911681e-07	-1.85894256e-07	-1.16860362e-06	2.63447147e-07	1.43205077e-06	0	0	0	0	0	0	3
30	3	0	0.75	-1.49502361e-07	-2.03239149e-07	-1.16860362e-06	2.63447147e-07	1.43205077e-06	0	0	0	0	0	0	3
31	3	0	0.775	-6.57732133e-07	-2.46274003e-07	-1.16860362e-06	2.63447147e-07	1.43205077e-06	0	0	0	0	0	0	3
32	3	0	0.8	-3.7749417e-07	-2.75302848e-07	-1.16860362e-06	2.63447147e-07	1.43205077e-06	0	0	0	0	0	0	3
33	3	0	0.825	-3.31024433e-07	-3.00402312e-07	-1.16860362e-06	2.63447147e-07	1.43205077e-06	0	0	0	0	0	0	3
34	3	0	0.85	-1.31586305e-06	-3.78461003e-07	-1.31586305e-06	2.63447147e-07	1.5793102e-06	0	0	0	0	0	0	3
35	3	0	0.875	2.48498261e-07	-3.79208448e-07	-1.31586305e-06	2.48498261e-07	1.56436131e-06	0	0	0	0	0	0	3
36	3	0	0.9	-1.08980357e-07	-3.900864e-07	-1.31586305e-06	2.48498261e-07	1.54142388e-06	0	0	0	0	0	0	3
37	3	0	0.925	-6.75837198e-07	-4.3460415e-07	-1.31586305e-06	2.48498261e-07	1.52215367e-06	0	0	0	0	0	0	3
38	3	0	0.95	-1.02865808e-06	-4.8619476e-07	-1.31586305e-06	2.48498261e-07	1.50023198e-06	0	0	0	0	0	0	3
39	4	0	0.975	-8.00345935e-08	-4.74737282e-07	-1.31586305e-06	2.48498261e-07	1.44991519e-06	0	0	0	0	0	0	3
40	4	0	1	-1.68321067e-07	-4.83538411e-07	-1.31586305e-06	2.48498261e-07	5.77620188e-07	0.00869152298	0	0	0	0	0	3
