Iteration	CPUTime	PhysTime	Travels	Value	AvValue	MinValue	MaxValue	Delta	Criteria	Progress	dGMaxMin	CriteriaType	CriteriaVarType	CriteriaPercentage
1	1	0	0.025	125677.346	125677.346	125677.346	125677.346	0	0	0	0	119675	0	0	3
2	1	0	0.05	111007.343	118342.344	111007.343	125677.346	7335.00172	0	0	0	77005.8	0	0	3
3	1	0	0.075	109953.4	115546.03	109953.4	125677.346	10131.3165	0	0	0	65990.7	0	0	3
4	1	0	0.1	108494.491	113783.145	108494.491	125677.346	11894.2011	0	0	0	54217.6	0	0	3
5	1	0	0.125	109366.02	112899.72	108494.491	125677.346	12777.6262	0	0	0	48549.9	0	0	3
6	1	0	0.15	109373.719	112312.053	108494.491	125677.346	13365.293	0	0	0	46887.6	0	0	3
7	1	0	0.175	109901.005	111967.618	108494.491	125677.346	13709.7285	0	0	0	47579.4	0	0	3
8	1	0	0.2	110140.835	111739.27	108494.491	125677.346	13938.0764	0	0	0	47152.5	0	0	3
9	2	0	0.225	110406.4	111591.173	108494.491	125677.346	14086.173	0	0	0	48119.5	0	0	3
10	2	0	0.25	110714.753	111503.531	108494.491	125677.346	14173.815	0	0	0	47756.3	0	0	3
11	2	0	0.275	111285.214	111483.684	108494.491	125677.346	14193.662	0	0	0	48482.2	0	0	3
12	2	0	0.3	111579.935	111491.705	108494.491	125677.346	14193.662	0	0	0	48399.9	0	0	3
13	2	0	0.325	111809.881	111516.18	108494.491	125677.346	14193.662	0	0	0	47760.5	0	0	3
14	2	0	0.35	112105.312	111558.261	108494.491	125677.346	14193.662	0	0	0	47283.3	0	0	3
15	2	0	0.375	112360.104	111611.717	108494.491	125677.346	14193.662	0	0	0	46555.4	0	0	3
16	2	0	0.4	112518.232	111668.374	108494.491	125677.346	14193.662	0	0	0	46164	0	0	3
17	2	0	0.425	112802.672	111735.098	108494.491	125677.346	14193.662	0	0	0	46457	0	0	3
18	2	0	0.45	113157.242	111814.106	108494.491	125677.346	14193.662	0	0	0	46050.6	0	0	3
19	2	0	0.475	113467.929	111901.149	108494.491	125677.346	14193.662	0	0	0	46840.3	0	0	3
20	2	0	0.5	113774.095	111994.796	108494.491	125677.346	14193.662	0	0	0	46881	0	0	3
21	2	0	0.525	113975.472	111409.703	108494.491	113975.472	5480.98065	0	0	0	46229.2	0	0	3
22	2	0	0.55	114300.717	111574.371	108494.491	114300.717	4136.32696	0	0	0	45573.8	0	0	3
23	2	0	0.575	114459.665	111799.685	108494.491	114459.665	2373.44241	0	0	0	45497.9	0	0	3
24	3	0	0.6	114604.828	112105.201	109366.02	114604.828	1490.0173	0	0	0	44384.7	0	0	3
25	3	0	0.625	114753.152	112374.558	109373.719	114753.152	964.855379	0	0	0	43099.3	0	0	3
26	3	0	0.65	114817.298	112646.737	109901.005	114817.298	1237.03437	0	0	0	42464.7	0	0	3
27	3	0	0.675	115009.056	112902.14	110140.835	115009.056	1492.43691	0	0	0	42157.7	0	0	3
28	3	0	0.7	115221.341	113156.165	110406.4	115221.341	1746.46225	0	0	0	41899.9	0	0	3
29	3	0	0.725	115426.442	113407.167	110714.753	115426.442	1997.46436	0	0	0	41630.9	0	0	3
30	3	0	0.75	115539.102	113648.384	111285.214	115539.102	2238.68183	0	0	0	41534.5	0	0	3
31	3	0	0.775	115554.662	113861.857	111579.935	115554.662	2452.15424	0	0	0	41634.8	0	0	3
32	3	0	0.8	115532.669	114059.494	111809.881	115554.662	2649.79092	0	0	0	41758.6	0	0	3
33	3	0	0.825	115551.413	114246.57	112105.312	115554.662	2836.86753	0	0	0	41774.2	0	0	3
34	3	0	0.85	115582.704	114420.44	112360.104	115582.704	3010.73714	0	0	0	41900.4	0	0	3
35	3	0	0.875	115616.414	114583.255	112518.232	115616.414	3098.1819	0	0	0	41949.4	0	0	3
36	3	0	0.9	115615.788	114738.133	112802.672	115616.414	2813.74179	0	0	0	41973.5	0	0	3
37	3	0	0.925	115595.342	114877.767	113157.242	115616.414	2459.17264	0	0	0	41975.2	0	0	3
38	3	0	0.95	115552.432	114997.526	113467.929	115616.414	2148.48515	0	0	0	41967.8	0	0	3
39	4	0	0.975	115484.414	115098.35	113774.095	115616.414	1842.319	0	0	0	41929	0	0	3
40	4	0	1	115424.273	115180.859	113975.472	115616.414	1640.94213	1068.28842	0	0	41936.6	0	0	3
